\relax 
\select@language{english}
\@writefile{toc}{\select@language{english}}
\@writefile{lof}{\select@language{english}}
\@writefile{lot}{\select@language{english}}
\@writefile{toc}{\contentsline {section}{Abstract}{2}}
\@writefile{toc}{\contentsline {section}{\numberline {1}Introduction and Motivation}{2}}
\newlabel{introduction}{{1}{2}}
\@writefile{toc}{\contentsline {subsection}{\numberline {1.1}Differential privacy}{2}}
\@writefile{lof}{\contentsline {figure}{\numberline {1}{\ignorespaces Diagram for the Differential Privacy Model\relax }}{3}}
\providecommand*\caption@xref[2]{\@setref\relax\@undefined{#1}}
\newlabel{fig:df}{{1}{3}}
\@writefile{toc}{\contentsline {subsection}{\numberline {1.2}Assumption for RAPPOR}{3}}
\@writefile{toc}{\contentsline {subsection}{\numberline {1.3}Paper organization}{3}}
\@writefile{toc}{\contentsline {section}{\numberline {2}RAPPOR Encoding Algorithm and Attack Model}{4}}
\newlabel{encoding}{{2}{4}}
\@writefile{toc}{\contentsline {subsection}{\numberline {2.1}Goal}{4}}
\@writefile{toc}{\contentsline {subsection}{\numberline {2.2}Method used}{4}}
\@writefile{toc}{\contentsline {subsubsection}{\numberline {2.2.1}Randomized response}{4}}
\@writefile{toc}{\contentsline {subsubsection}{\numberline {2.2.2}Local differential privacy}{4}}
\@writefile{toc}{\contentsline {subsubsection}{\numberline {2.2.3}Bloom filters}{4}}
\@writefile{toc}{\contentsline {subsubsection}{\numberline {2.2.4}Input \& Output}{5}}
\@writefile{toc}{\contentsline {subsubsection}{\numberline {2.2.5}Parameters}{5}}
\@writefile{toc}{\contentsline {subsubsection}{\numberline {2.2.6}RAPPOR algorithm}{5}}
\@writefile{toc}{\contentsline {subsubsection}{\numberline {2.2.7}Visualized RAPPOR encoding model diagram}{7}}
\@writefile{lof}{\contentsline {figure}{\numberline {2}{\ignorespaces Diagram of the RAPPORT encoding process\relax }}{7}}
\newlabel{fig:encoding}{{2}{7}}
\@writefile{toc}{\contentsline {subsubsection}{\numberline {2.2.8}Different kinds of RAPPOR modifications}{7}}
\@writefile{toc}{\contentsline {section}{\numberline {3}Decoding}{7}}
\newlabel{decoding}{{3}{7}}
\@writefile{toc}{\contentsline {subsection}{\numberline {3.1}Operation steps}{8}}
\newlabel{decode}{{1}{8}}
\@writefile{toc}{\contentsline {section}{\numberline {4}Ideas}{9}}
\newlabel{ideas}{{4}{9}}
\@writefile{toc}{\contentsline {section}{\numberline {5}Experiment and Evaluation of Different Distributions}{9}}
\newlabel{distributions}{{5}{9}}
\@writefile{toc}{\contentsline {subsection}{\numberline {5.1}General parameters and judgements used}{9}}
\@writefile{lot}{\contentsline {table}{\numberline {1}{\ignorespaces Basic Parameters Used in Different Distribution Models\relax }}{9}}
\newlabel{params}{{1}{9}}
\@writefile{toc}{\contentsline {subsection}{\numberline {5.2}Different Distribution Models}{10}}
\@writefile{toc}{\contentsline {subsubsection}{\numberline {5.2.1}Uniform Distribution}{10}}
\@writefile{lof}{\contentsline {figure}{\numberline {3}{\ignorespaces Uniform Distribution Model\relax }}{10}}
\newlabel{fig:unif}{{3}{10}}
\@writefile{toc}{\contentsline {subsubsection}{\numberline {5.2.2}Gauss Distribution}{11}}
\@writefile{lof}{\contentsline {figure}{\numberline {4}{\ignorespaces Gauss Distribution Model\relax }}{11}}
\newlabel{fig:gauss}{{4}{11}}
\@writefile{toc}{\contentsline {subsubsection}{\numberline {5.2.3}Poisson Distribution}{11}}
\@writefile{lof}{\contentsline {figure}{\numberline {5}{\ignorespaces Poisson Distribution Model\relax }}{12}}
\newlabel{fig:poi}{{5}{12}}
\@writefile{toc}{\contentsline {subsubsection}{\numberline {5.2.4}Log-normal Distribution}{12}}
\@writefile{toc}{\contentsline {subsubsection}{\numberline {5.2.5}Gamma Distribution}{12}}
\citation{erlingsson2014rappor}
\@writefile{lof}{\contentsline {figure}{\numberline {6}{\ignorespaces Log-normal Distribution Model\relax }}{13}}
\newlabel{fig:log}{{6}{13}}
\@writefile{toc}{\contentsline {subsubsection}{\numberline {5.2.6}Weibull Distribution}{13}}
\@writefile{toc}{\contentsline {subsubsection}{\numberline {5.2.7}Exponential Distribution}{13}}
\@writefile{toc}{\contentsline {subsubsection}{\numberline {5.2.8}Chi-squared Distribution}{13}}
\@writefile{lof}{\contentsline {figure}{\numberline {7}{\ignorespaces Gamma Distribution Model\relax }}{14}}
\newlabel{fig:gamma}{{7}{14}}
\@writefile{toc}{\contentsline {subsubsection}{\numberline {5.2.9}Student's t-Distribution}{14}}
\@writefile{toc}{\contentsline {subsubsection}{\numberline {5.2.10}Inverse Proportional Function Fitting}{14}}
\@writefile{lof}{\contentsline {figure}{\numberline {8}{\ignorespaces Weibull Distribution Model\relax }}{15}}
\newlabel{fig:wei}{{8}{15}}
\@writefile{toc}{\contentsline {subsection}{\numberline {5.3}Comparison of Different Distribution Model}{15}}
\@writefile{lot}{\contentsline {table}{\numberline {2}{\ignorespaces Fitting Result Comparison For Different Distribution Models and Functions\relax }}{15}}
\newlabel{params}{{2}{15}}
\@writefile{lof}{\contentsline {figure}{\numberline {9}{\ignorespaces Exponential Distribution Model\relax }}{16}}
\newlabel{fig:exp}{{9}{16}}
\@writefile{toc}{\contentsline {section}{\numberline {6}Parameters Tuning}{16}}
\newlabel{params}{{6}{16}}
\@writefile{toc}{\contentsline {subsection}{\numberline {6.1}Impact of f}{16}}
\@writefile{lof}{\contentsline {figure}{\numberline {10}{\ignorespaces Chi-squared Distribution Model\relax }}{17}}
\newlabel{fig:chisquare}{{10}{17}}
\@writefile{lof}{\contentsline {figure}{\numberline {11}{\ignorespaces Student's t Distribution Model\relax }}{18}}
\newlabel{fig:student_dist}{{11}{18}}
\@writefile{toc}{\contentsline {subsection}{\numberline {6.2}Impact of p and q}{18}}
\newlabel{fig:zipf1}{{12a}{19}}
\newlabel{sub@fig:zipf1}{{a}{19}}
\newlabel{fig:zipf1_5}{{12b}{19}}
\newlabel{sub@fig:zipf1_5}{{b}{19}}
\@writefile{lof}{\contentsline {figure}{\numberline {12}{\ignorespaces Inverse Proportional Function Fitting\relax }}{19}}
\newlabel{fig:zipf}{{12}{19}}
\newlabel{fig:f_0}{{13a}{20}}
\newlabel{sub@fig:f_0}{{a}{20}}
\newlabel{fig:f_025}{{13b}{20}}
\newlabel{sub@fig:f_025}{{b}{20}}
\newlabel{fig:f_050}{{13c}{20}}
\newlabel{sub@fig:f_050}{{c}{20}}
\@writefile{lof}{\contentsline {figure}{\numberline {13}{\ignorespaces f\relax }}{20}}
\newlabel{fig:f}{{13}{20}}
\newlabel{fig:f_075}{{14a}{20}}
\newlabel{sub@fig:f_075}{{a}{20}}
\newlabel{fig:f_095}{{14b}{20}}
\newlabel{sub@fig:f_095}{{b}{20}}
\@writefile{lof}{\contentsline {figure}{\numberline {14}{\ignorespaces Impact of f\relax }}{20}}
\newlabel{fig:f}{{14}{20}}
\@writefile{toc}{\contentsline {subsection}{\numberline {6.3}Impact of N: number of reports}{21}}
\@writefile{toc}{\contentsline {section}{\numberline {7}Counting Bloom Filter}{21}}
\newlabel{counting_bf}{{7}{21}}
\@writefile{toc}{\contentsline {subsection}{\numberline {7.1}Multiple-time collection in Basic RAPPOR}{21}}
\newlabel{fig:p_025_q_020}{{15a}{22}}
\newlabel{sub@fig:p_025_q_020}{{a}{22}}
\newlabel{fig:p_090_q_095}{{15b}{22}}
\newlabel{sub@fig:p_090_q_095}{{b}{22}}
\newlabel{fig:p_025_q_0}{{15c}{22}}
\newlabel{sub@fig:p_025_q_0}{{c}{22}}
\newlabel{fig:p_1_q_075}{{15d}{22}}
\newlabel{sub@fig:p_1_q_075}{{d}{22}}
\newlabel{fig:p_1_q_050}{{15e}{22}}
\newlabel{sub@fig:p_1_q_050}{{e}{22}}
\newlabel{fig:p_025_q_075}{{15f}{22}}
\newlabel{sub@fig:p_025_q_075}{{f}{22}}
\@writefile{lof}{\contentsline {figure}{\numberline {15}{\ignorespaces Impact of f (first part)\relax }}{22}}
\newlabel{fig:f1}{{15}{22}}
\newlabel{fig:p_085_q_010}{{16a}{23}}
\newlabel{sub@fig:p_085_q_010}{{a}{23}}
\newlabel{fig:p_0_q_075}{{16b}{23}}
\newlabel{sub@fig:p_0_q_075}{{b}{23}}
\newlabel{fig:p_095_q_0}{{16c}{23}}
\newlabel{sub@fig:p_095_q_0}{{c}{23}}
\newlabel{fig:p_005_q_1}{{16d}{23}}
\newlabel{sub@fig:p_005_q_1}{{d}{23}}
\newlabel{fig:p_1_q_0}{{16e}{23}}
\newlabel{sub@fig:p_1_q_0}{{e}{23}}
\newlabel{fig:p_0_q_1}{{16f}{23}}
\newlabel{sub@fig:p_0_q_1}{{f}{23}}
\@writefile{lof}{\contentsline {figure}{\numberline {16}{\ignorespaces Impact of f (second part)\relax }}{23}}
\newlabel{fig:f2}{{16}{23}}
\newlabel{fig:M_2_N_5}{{17a}{24}}
\newlabel{sub@fig:M_2_N_5}{{a}{24}}
\newlabel{fig:M_2_N_6}{{17b}{24}}
\newlabel{sub@fig:M_2_N_6}{{b}{24}}
\newlabel{fig:M_2_N_7}{{17c}{24}}
\newlabel{sub@fig:M_2_N_7}{{c}{24}}
\@writefile{lof}{\contentsline {figure}{\numberline {17}{\ignorespaces Impact of N (M = 100)\relax }}{24}}
\newlabel{fig:N}{{17}{24}}
\newlabel{fig:M_1_N_6}{{18a}{24}}
\newlabel{sub@fig:M_1_N_6}{{a}{24}}
\newlabel{fig:M_2_N_6}{{18b}{24}}
\newlabel{sub@fig:M_2_N_6}{{b}{24}}
\newlabel{fig:M_3_N_6}{{18c}{24}}
\newlabel{sub@fig:M_3_N_6}{{c}{24}}
\@writefile{lof}{\contentsline {figure}{\numberline {18}{\ignorespaces Impact of M (N = 100000)\relax }}{24}}
\newlabel{fig:N}{{18}{24}}
\@writefile{toc}{\contentsline {subsection}{\numberline {7.2}Extension: Basic RAPPOR with counting Bloom filter}{24}}
\@writefile{toc}{\contentsline {paragraph}{Counting Bloom filter}{24}}
\@writefile{toc}{\contentsline {paragraph}{Basic RAPPOR with counting Bloom filter}{25}}
\@writefile{toc}{\contentsline {subsection}{\numberline {7.3}Differential privacy of extended Basic RAPPOR}{25}}
\@writefile{toc}{\contentsline {paragraph}{Assumptions}{25}}
\@writefile{toc}{\contentsline {paragraph}{Differential privacy of the permanent randomized response}{25}}
\@writefile{toc}{\contentsline {paragraph}{Decoding of extended Basic RAPPOR}{27}}
\citation{bloom1970space}
\citation{fan2000summary}
\@writefile{toc}{\contentsline {paragraph}{Server space saving}{29}}
\@writefile{toc}{\contentsline {section}{\numberline {8}Hash Collision}{29}}
\newlabel{hash_collision}{{8}{29}}
\@writefile{toc}{\contentsline {subsection}{\numberline {8.1}Hash collision for standard bloom filter}{29}}
\newlabel{co1}{{2}{29}}
\citation{fan1998summary}
\citation{gonnet1984handbook}
\citation{fan1998summary}
\citation{fan1998summary}
\@writefile{toc}{\contentsline {subsection}{\numberline {8.2}Hash collision for counting bloom filter}{30}}
\newlabel{co2}{{3}{30}}
\@writefile{toc}{\contentsline {section}{\numberline {9}Multivariate Distribution}{31}}
\newlabel{multivariate}{{9}{31}}
\@writefile{toc}{\contentsline {subsection}{\numberline {9.1}Multivariate query \& Joint distribution estimation}{31}}
\@writefile{toc}{\contentsline {subsubsection}{\numberline {9.1.1}Goal}{31}}
\@writefile{toc}{\contentsline {subsubsection}{\numberline {9.1.2}Method used}{31}}
\@writefile{toc}{\contentsline {subsubsection}{\numberline {9.1.3}Input \& Output}{32}}
\@writefile{toc}{\contentsline {subsubsection}{\numberline {9.1.4}Parameters}{32}}
\@writefile{toc}{\contentsline {subsubsection}{\numberline {9.1.5}Estimating joint distributions with the EM algorithm}{32}}
\citation{xiao2010using}
\citation{xiao2010using}
\@writefile{lof}{\contentsline {figure}{\numberline {19}{\ignorespaces Bloom filter structures. (a) Flat form. (b) Segment form\relax }}{34}}
\newlabel{fig:SBF}{{19}{34}}
\@writefile{toc}{\contentsline {subsection}{\numberline {9.2}Parallel Bloom Filters for Multiattribute Representation}{34}}
\@writefile{toc}{\contentsline {subsubsection}{\numberline {9.2.1}Parallel Bloom Filter structure}{34}}
\@writefile{toc}{\contentsline {paragraph}{Parallel Bloom Filter}{34}}
\citation{xiao2010using}
\@writefile{lof}{\contentsline {figure}{\numberline {20}{\ignorespaces PBF-HT structure using counting Bloom filters\relax }}{35}}
\newlabel{fig:PBF}{{20}{35}}
\@writefile{toc}{\contentsline {paragraph}{Parallel Bloom Filter with Hash Table}{35}}
\citation{xiao2010using}
\@writefile{toc}{\contentsline {subsubsection}{\numberline {9.2.2}False positive rate and memory space comparison with Standard Bloom Filter}{36}}
\@writefile{toc}{\contentsline {section}{\numberline {10}Adaptive Data Collection}{36}}
\newlabel{adaptive}{{10}{36}}
\@writefile{lof}{\contentsline {figure}{\numberline {21}{\ignorespaces Diagram for ordinary RAPPORT data collection\relax }}{37}}
\newlabel{fig:adapt1}{{21}{37}}
\@writefile{lof}{\contentsline {figure}{\numberline {22}{\ignorespaces Maximum number of discoverable strings vs sample size for different candidate string space size M\relax }}{38}}
\newlabel{fig:adapt2}{{22}{38}}
\@writefile{toc}{\contentsline {subsection}{\numberline {10.1}Sample-size decreases as adaptive queries go}{38}}
\@writefile{lof}{\contentsline {figure}{\numberline {23}{\ignorespaces Diagram for adaptive data collection for RAPPORT\relax }}{39}}
\newlabel{fig:adapt3}{{23}{39}}
\@writefile{toc}{\contentsline {subsection}{\numberline {10.2}Sample-size stays the same as adaptive queries go}{40}}
\@writefile{toc}{\contentsline {subsection}{\numberline {10.3}Summarization}{41}}
\@writefile{toc}{\contentsline {section}{\numberline {11}Conclusion}{41}}
\newlabel{conclusion}{{11}{41}}
\@writefile{toc}{\contentsline {section}{Acknowledgement}{41}}
\bibstyle{plain}
\bibdata{references}
